Reshaping Data — Home Page
…
%%R
emissions <- readxl::read_excel("data/National_Fossil_Carbon_Emissions_2023v1.0.xlsx",
                                sheet = "Territorial Emissions",
                                skip = 11) |>
  dplyr::rename(Year = `...1`) |>  # missing column name in data got assigned name `...1` when reading
  dplyr::select(Year, World, Africa, Asia, `Central America`, Europe,
                `Middle East`, `North America`, Oceania, `South America`,
                Bunkers) |>
  dplyr::mutate(Year = as.integer(Year))

print(emissions)

New names:
• `` -> `...1`
# A tibble: 173 × 11
    Year World Africa    Asia `Central America` Europe `Middle East`
   <int> <dbl>  <dbl>   <dbl>             <dbl>  <dbl>         <dbl>
 1  1850  53.7      0 0.00360                 0   48.2             0
 2  1851  54.2      0 0                       0   47.5             0
 3  1852  56.6      0 0                       0   49.2             0
 4  1853  59.3      0 0                       0   51.0             0
 5  1854  69.6      0 0                       0   60.5             0
 6  1855  71.0      0 0.0109                  0   60.5             0
 7  1856  75.7      0 0                       0   64.6             0
 8  1857  76.4      0 0                       0   65.0             0
 9  1858  77.6      0 0.123                   0   65.9             0
10  1859  82.3      0 0.190                   0   69.5             0
# ℹ 163 more rows
# ℹ 4 more variables: `North America` <dbl>, Oceania <dbl>,
#   `South America` <dbl>, Bunkers <dbl>
# ℹ Use `print(n = ...)` to see more rows
…
The behaviour of pivot_longer is much easier to see with an example. The
following creates a new column called ‘Region’ that contains all the column
names in emissions from ‘World’ to ‘Bunkers’. The values from these columns
are put into a new column called ‘Territorial_emissions’.

%%R
emissions_tidy <- emissions |>
  tidyr::pivot_longer(World:Bunkers,  # All columns from 'World' to 'Bunkers'
                      names_to = "Region",
                      values_to = "Territorial_emissions")

print(emissions_tidy)

# A tibble: 1,730 × 3
    Year Region          Territorial_emissions
   <int> <chr>                           <dbl>
 1  1850 World                        53.7    
 2  1850 Africa                        0      
 3  1850 Asia                          0.00360
 4  1850 Central America               0      
 5  1850 Europe                       48.2    
 6  1850 Middle East                   0      
 7  1850 North America                 5.42   
 8  1850 Oceania                       0.0306 
 9  1850 South America                 0      
10  1850 Bunkers                       0      
# ℹ 1,720 more rows
# ℹ Use `print(n = ...)` to see more rows
…
What do values in the ‘Africa’ and ‘Territorial_emissions?’ columns correspond
to in the following output?

%%R
emissions |>
  tidyr::pivot_longer(!Africa,  # this means all columns except 'Africa'
                      names_to = "Names_column",
                      values_to = "Territorial_emissions?") |>
  dplyr::filter(Names_column == "Year")

# A tibble: 173 × 3
   Africa Names_column `Territorial_emissions?`
    <dbl> <chr>                           <dbl>
 1      0 Year                             1850
 2      0 Year                             1851
 3      0 Year                             1852
 4      0 Year                             1853
 5      0 Year                             1854
 6      0 Year                             1855
 7      0 Year                             1856
 8      0 Year                             1857
 9      0 Year                             1858
10      0 Year                             1859
# ℹ 163 more rows
# ℹ Use `print(n = ...)` to see more rows
…
values_from is the name of a column whose values will go into the ‘cells’
of the new dataframe.

To see this in action, the following use of pivot_wider will take our tidied
emissions data and put it back into the original ‘matrix’ format, where regions
corresponded to columns and the entries gave the emissions for each year-region
combination.

%%R
emissions_tidy |>
  tidyr::pivot_wider(names_from = Region, values_from = Territorial_emissions)

# A tibble: 173 × 11
    Year World Africa    Asia `Central America` Europe `Middle East`
   <int> <dbl>  <dbl>   <dbl>             <dbl>  <dbl>         <dbl>
 1  1850  53.7      0 0.00360                 0   48.2             0
 2  1851  54.2      0 0                       0   47.5             0
 3  1852  56.6      0 0                       0   49.2             0
 4  1853  59.3      0 0                       0   51.0             0
 5  1854  69.6      0 0                       0   60.5             0
 6  1855  71.0      0 0.0109                  0   60.5             0
 7  1856  75.7      0 0                       0   64.6             0
 8  1857  76.4      0 0                       0   65.0             0
 9  1858  77.6      0 0.123                   0   65.9             0
10  1859  82.3      0 0.190                   0   69.5             0
# ℹ 163 more rows
# ℹ 4 more variables: `North America` <dbl>, Oceania <dbl>,
#   `South America` <dbl>, Bunkers <dbl>
# ℹ Use `print(n = ...)` to see more rows
…
