Combining Datasets — Coding For Reproducible Research
…
%%R
library(palmerpenguins)  # loads `penguins` data
weather <- readr::read_csv("./data/weather_annual.csv")

penguins
weather

Rows: 35 Columns: 4
── Column specification ────────────────────────────────────────────────────────
Delimiter: ","
dbl (4): Year, Average_temp, Max_temp, Min_temp

ℹ Use `spec()` to retrieve the full column specification for this data.
ℹ Specify the column types or set `show_col_types = FALSE` to quiet this message.
# A tibble: 35 × 4
    Year Average_temp Max_temp Min_temp
   <dbl>        <dbl>    <dbl>    <dbl>
 1  1989      NA           7.8    -11.1
 2  1990      NA           8.7    -20.6
 3  1991      NA           9.8    -18  
 4  1992      NA          10.3    -24.7
 5  1993      NA          10.1    -17.6
 6  1994      -7.2         9      -25.6
 7  1995       0.0613      9      -26  
 8  1996      -0.642       9.6    -22.7
 9  1997      -2.43        9.5    -25.2
10  1998      -0.989       8.5    -21.7
# ℹ 25 more rows
# ℹ Use `print(n = ...)` to see more rows
…
