Manipulating A Dataframe — Coding For Reproducible Research
…
Some examples on the penguin data:

%%R
# Observations of male penguins from the year 2008:
dplyr::filter(penguins, sex == "male" & year == 2008)  # using &
dplyr::filter(penguins, sex == "male", year == 2008)  # listing multiple conditions in filter

# Observations of penguins with bill length > 40mm or bill depth < 20mm 
dplyr::filter(penguins, bill_length_mm > 40 | bill_depth_mm < 20)

# Observations except those of male penguins on the island of Biscoe
dplyr::filter(penguins, !(sex == "male" & island == "Biscoe"))

# A tibble: 256 × 8
   species island    bill_length_mm bill_depth_mm flipper_length_mm body_mass_g
   <fct>   <fct>              <dbl>         <dbl>             <int>       <int>
 1 Adelie  Torgersen           39.1          18.7               181        3750
 2 Adelie  Torgersen           39.5          17.4               186        3800
 3 Adelie  Torgersen           40.3          18                 195        3250
 4 Adelie  Torgersen           NA            NA                  NA          NA
 5 Adelie  Torgersen           36.7          19.3               193        3450
 6 Adelie  Torgersen           39.3          20.6               190        3650
 7 Adelie  Torgersen           38.9          17.8               181        3625
 8 Adelie  Torgersen           39.2          19.6               195        4675
 9 Adelie  Torgersen           34.1          18.1               193        3475
10 Adelie  Torgersen           42            20.2               190        4250
# ℹ 246 more rows
# ℹ 2 more variables: sex <fct>, year <int>
# ℹ Use `print(n = ...)` to see more rows
…
To do the reverse, i.e. keep only the observations where the sex value is not
missing, combine is.na with the NOT operator:

%%R
dplyr::filter(penguins, !is.na(sex))

# A tibble: 333 × 8
   species island    bill_length_mm bill_depth_mm flipper_length_mm body_mass_g
   <fct>   <fct>              <dbl>         <dbl>             <int>       <int>
 1 Adelie  Torgersen           39.1          18.7               181        3750
 2 Adelie  Torgersen           39.5          17.4               186        3800
 3 Adelie  Torgersen           40.3          18                 195        3250
 4 Adelie  Torgersen           36.7          19.3               193        3450
 5 Adelie  Torgersen           39.3          20.6               190        3650
 6 Adelie  Torgersen           38.9          17.8               181        3625
 7 Adelie  Torgersen           39.2          19.6               195        4675
 8 Adelie  Torgersen           41.1          17.6               182        3200
 9 Adelie  Torgersen           38.6          21.2               191        3800
10 Adelie  Torgersen           34.6          21.1               198        4400
# ℹ 323 more rows
# ℹ 2 more variables: sex <fct>, year <int>
# ℹ Use `print(n = ...)` to see more rows
…
Another example: if we wanted to calculate a new value, the ratio of bill length
to bill depth, we could do the following

%%R
dplyr::mutate(penguins, bill_ratio = bill_length_mm / bill_depth_mm)

# A tibble: 344 × 9
   species island    bill_length_mm bill_depth_mm flipper_length_mm body_mass_g
   <fct>   <fct>              <dbl>         <dbl>             <int>       <int>
 1 Adelie  Torgersen           39.1          18.7               181        3750
 2 Adelie  Torgersen           39.5          17.4               186        3800
 3 Adelie  Torgersen           40.3          18                 195        3250
 4 Adelie  Torgersen           NA            NA                  NA          NA
 5 Adelie  Torgersen           36.7          19.3               193        3450
 6 Adelie  Torgersen           39.3          20.6               190        3650
 7 Adelie  Torgersen           38.9          17.8               181        3625
 8 Adelie  Torgersen           39.2          19.6               195        4675
 9 Adelie  Torgersen           34.1          18.1               193        3475
10 Adelie  Torgersen           42            20.2               190        4250
# ℹ 334 more rows
# ℹ 3 more variables: sex <fct>, year <int>, bill_ratio <dbl>
# ℹ Use `print(n = ...)` to see more rows
…
dplyr::arrange(data, col)  # sort rows by ascending order of values from column
                           # `col`

dplyr::arrange(data, dplyr::desc(col))  # sort rows by descending order of
                                        # values from column `col`

For example, to sort the penguins data by descending value of flipper length:

%%R
penguins_sorted_flipper <- dplyr::arrange(penguins, dplyr::desc(flipper_length_mm))
penguins_sorted_flipper

# A tibble: 344 × 9
   species island bill_length_mm bill_depth_mm flipper_length_mm body_mass_g
   <fct>   <fct>           <dbl>         <dbl>             <int>       <int>
 1 Gentoo  Biscoe           54.3          15.7               231        5650
 2 Gentoo  Biscoe           50            16.3               230        5700
 3 Gentoo  Biscoe           59.6          17                 230        6050
 4 Gentoo  Biscoe           49.8          16.8               230        5700
 5 Gentoo  Biscoe           48.6          16                 230        5800
 6 Gentoo  Biscoe           52.1          17                 230        5550
 7 Gentoo  Biscoe           51.5          16.3               230        5500
 8 Gentoo  Biscoe           55.1          16                 230        5850
 9 Gentoo  Biscoe           49.5          16.2               229        5800
10 Gentoo  Biscoe           49.8          15.9               229        5950
# ℹ 334 more rows
# ℹ 3 more variables: sex <fct>, year <int>, bill_ratio <dbl>
# ℹ Use `print(n = ...)` to see more rows
…
